{
  "$schema": "https://json-schema.org/draft/2019-09/schema#",
  "$id+": "http://cave.com/schemas/quote-record.json",
  "type": "object",
  "title": "Quote record",
  "description": "Quote record returned by the api",
  "additionalProperties": false,
  "required": ["author", "number", "quote"],
  "properties": {
    "author": {
      "type": "string",
      "description": "Author of the quote record"
    },
    "number": {
      "type": ["number"],
      "description": "Number of the quote record"
    },
    "quote": {
      "type": "string",
      "description": "Quote text of the quote"
    }
  }
}